﻿{
  "profiles": {
    "MindGeek.MovieCollection.FeedWorkerService": {
      "commandName": "Project",
      "environmentVariables": {
        "DOTNET_ENVIRONMENT": "Development"
      }
    }
  }
}
