﻿{
  "$schema": "http://json.schemastore.org/launchsettings.json",
  "iisSettings": {
    "windowsAuthentication": false,
    "anonymousAuthentication": true,
    "iisExpress": {
      "applicationUrl": "http://localhost:40133",
      "sslPort": 44394
    }
  },
  "profiles": {
    "IIS Express": {
      "commandName": "IISExpress",
      "launchBrowser": true,
      "launchUrl": "",
      "environmentVariables": {
        "ASPNETCORE_ENVIRONMENT": "Development",
        "ASPNETCORE_HOSTINGSTARTUP__KEYVAULT__CONFIGURATIONENABLED": "true",
        "ASPNETCORE_HOSTINGSTARTUP__KEYVAULT__CONFIGURATIONVAULT": "https://mindgeek-mk-kv.vault.azure.net"
      }
    },
    "MindGeek.MovieCollectionApi": {
      "commandName": "Project",
      "launchBrowser": true,
      "launchUrl": "",
      "applicationUrl": "https://localhost:5001;http://localhost:5000",
      "environmentVariables": {
        "ASPNETCORE_ENVIRONMENT": "Development",
        "ASPNETCORE_HOSTINGSTARTUP__KEYVAULT__CONFIGURATIONENABLED": "false",
        "ASPNETCORE_HOSTINGSTARTUP__KEYVAULT__CONFIGURATIONVAULT": "https://mindgeek-mk-kv.vault.azure.net"
      }
    }
  }
}